{
  "database": {
    "host": "localhost",
    "name": "counter",
    "user": "",
    "pass": "",
    "port": ""
  },
  "website": {
    "port": 3000,
    "super_admin": {
      "name": "admin@root",
      "password": "counter2015"
    },
    "name": "Counter"
  }
}
