<?xml version="1.0" encoding="utf-8"?>
<!-- Generator: Adobe Illustrator 16.0.0, SVG Export Plug-In . SVG Version: 6.00 Build 0)  -->
<!DOCTYPE svg PUBLIC "-//W3C//DTD SVG 1.1//EN" "http://www.w3.org/Graphics/SVG/1.1/DTD/svg11.dtd">
<svg version="1.1" id="Layer_1" xmlns="http://www.w3.org/2000/svg" xmlns:xlink="http://www.w3.org/1999/xlink" x="0px" y="0px"
	 width="112.888px" height="210.176px" viewBox="0 0 112.888 210.176" enable-background="new 0 0 112.888 210.176"
	 xml:space="preserve">
<g>
	<path fill-rule="evenodd" clip-rule="evenodd" d="M29.966,84.639c-3.622,4.826-7.147,9.732-10.895,14.46
		c-4.576,5.772-11.87,6.025-16.496,0.747C-0.336,96.524-1,91.536,1.731,87.443c8.921-13.374,19.162-25.66,31.197-36.387
		c1.764-1.57,3.335-3.381,5.211-4.793c6.903-5.192,17.937-3.967,24.319,2.897c4.642,4.993,8.806,10.429,13.385,15.485
		c9.123,10.076,19.684,18.414,31.224,25.59c5.16,3.209,6.844,8.275,5.233,13.832c-1.882,6.487-7.898,9.293-13.53,5.541
		c-9.36-6.238-18.32-13.075-27.422-19.697c-1.284-0.936-2.416-2.082-4.265-3.693c0,7.303-0.142,13.88,0.042,20.448
		c0.176,6.374,0.574,12.749,1.117,19.103c0.173,1.996,1.098,3.938,1.745,5.881c6.712,20.09,13.528,40.145,20.114,60.275
		c2.623,8.012-3,14.98-11.433,14.646c-4.945-0.195-7.938-2.543-9.841-8.16c-5.7-16.83-11.305-33.691-16.962-50.535
		c-0.532-1.584-1.176-3.133-1.766-4.697c-0.41-0.022-0.82-0.044-1.229-0.065c-2.563,5.415-5.531,10.681-7.611,16.276
		c-5.055,13.595-9.764,27.318-14.465,41.041c-1.696,4.949-4.142,8.965-9.804,9.646c-8.624,1.039-14.362-6.307-11.787-15.109
		c6.419-21.936,14.194-43.334,24.679-63.717c1.588-3.089,2.215-6.995,2.208-10.521c-0.018-10.382-0.584-20.762-0.917-31.142
		c-0.05-1.552-0.006-3.105-0.006-4.657C30.768,84.833,30.367,84.735,29.966,84.639z"/>
	<path fill-rule="evenodd" clip-rule="evenodd" d="M51.747,0C62.739,0.01,71.88,9.094,71.948,20.074
		c0.065,10.965-8.971,20.068-20.039,20.189c-11.211,0.121-20.487-9.084-20.412-20.252C31.572,9.041,40.732-0.011,51.747,0z"/>
</g>
</svg>
