<?xml version="1.0" encoding="utf-8"?>
<!-- Generator: Adobe Illustrator 16.0.0, SVG Export Plug-In . SVG Version: 6.00 Build 0)  -->
<!DOCTYPE svg PUBLIC "-//W3C//DTD SVG 1.1//EN" "http://www.w3.org/Graphics/SVG/1.1/DTD/svg11.dtd">
<svg version="1.1" id="Layer_1" xmlns="http://www.w3.org/2000/svg" xmlns:xlink="http://www.w3.org/1999/xlink" x="0px" y="0px"
	 width="185.945px" height="102.022px" viewBox="0 0 185.945 102.022" enable-background="new 0 0 185.945 102.022"
	 xml:space="preserve">
<g>
	<polygon fill="none" stroke="#000000" stroke-width="8.5039" stroke-miterlimit="10" points="181.909,98.266 133.716,98.266 
		27.921,98.266 27.921,4.747 158.313,4.747 181.909,4.747 	"/>
	<g>
		<polygon fill="#939598" points="157.247,11.782 174.443,11.782 174.443,91.23 136.364,91.23 		"/>
		<polygon fill="#939598" points="108.985,91.23 132.12,91.23 153.724,11.782 132.12,11.782 		"/>
	</g>
	
		<rect x="4.468" y="28.967" fill="none" stroke="#000000" stroke-width="8.5039" stroke-miterlimit="10" width="23.618" height="47.231"/>
</g>
</svg>
