<?xml version="1.0" encoding="utf-8"?>
<!-- Generator: Adobe Illustrator 16.0.0, SVG Export Plug-In . SVG Version: 6.00 Build 0)  -->
<!DOCTYPE svg PUBLIC "-//W3C//DTD SVG 1.1//EN" "http://www.w3.org/Graphics/SVG/1.1/DTD/svg11.dtd">
<svg version="1.1" id="Layer_1" xmlns="http://www.w3.org/2000/svg" xmlns:xlink="http://www.w3.org/1999/xlink" x="0px" y="0px"
	 width="185.945px" height="102.022px" viewBox="0 0 185.945 102.022" enable-background="new 0 0 185.945 102.022"
	 xml:space="preserve">
<g>
	<polygon fill="none" stroke="#000000" stroke-width="8.5039" stroke-miterlimit="10" points="181.909,98.18 133.716,98.18 
		27.921,98.18 27.921,4.661 158.313,4.661 181.909,4.661 	"/>
	<g>
		<polygon fill="#939598" points="157.247,11.696 174.443,11.696 174.443,91.145 136.364,91.145 		"/>
		<polygon fill="#939598" points="108.985,91.145 132.12,91.145 153.724,11.696 132.12,11.696 		"/>
		<polygon fill="#939598" points="81.756,91.145 104.89,91.145 126.495,11.696 104.89,11.696 		"/>
		<polygon fill="#939598" points="55.357,91.145 78.491,91.145 100.097,11.696 78.491,11.696 		"/>
	</g>
	
		<rect x="4.468" y="28.881" fill="none" stroke="#000000" stroke-width="8.5039" stroke-miterlimit="10" width="23.618" height="47.231"/>
</g>
</svg>
